{
  "version": "1.0",
  "defaultProvider": "cdnjs",
  "libraries": [
    {
      "library": "jquery@3.5.1",
      "files": [
        "jquery.min.js",
        "jquery.js",
        "jquery.min.map"
      ],
      "destination": "wwwroot/lib/jquery/dist"
    },
    {
      "library": "jqueryui@1.13.2",
      "files": [
        "jquery-ui.min.js",
        "jquery-ui.js",
        "themes/**"
      ],
      "destination": "wwwroot/lib/jquery-ui/dist"
    },
    {
      "provider": "unpkg",
      "library": "jquery-validation@1.17.0",
      "destination": "wwwroot/lib/jquery-validation",
      "files": [
        "dist/*",
        "dist/**/*",
        "!.DS_Store"
      ]
    },
    {
      "provider": "unpkg",
      "library": "jquery-validation-unobtrusive@3.2.11",
      "destination": "wwwroot/lib/jquery-validation-unobtrusive",
      "files": [
        "dist/*",
        "dist/**/*",
        "!.DS_Store"
      ]
    },
    {
      "provider": "unpkg",
      "library": "bootstrap@4.3.1",
      "destination": "wwwroot/lib/bootstrap/",
      "files": [
        "dist/*",
        "dist/**/*",
        "!.DS_Store"
      ]
    },
    {
      "library": "font-awesome@6.2.0",
      "files": [
        "css/*",
        "webfonts/*"
      ],
      "destination": "wwwroot/lib/font-awesome/dist"
    }
  ]
}
